<svg
  xmlns="http://www.w3.org/2000/svg"
  width="24"
  height="24"
  viewBox="0 0 24 24"
  fill="white"
  stroke="white"
  stroke-width="2"
  stroke-linecap="round"
  stroke-linejoin="round"
>
  <polyline points="14 9 9 4 4 9" />
  <path d="M20 20h-7a4 4 0 0 1-4-4V4" />
</svg>
