<svg
  xmlns="http://www.w3.org/2000/svg"
  width="24"
  height="24"
  viewBox="0 0 24 24"
  fill="white"
  stroke="white"
  stroke-width="2"
  stroke-linecap="round"
  stroke-linejoin="round"
>
  <circle cx="12" cy="12" r="10" />
  <line x1="12" y1="16" x2="12" y2="12" />
  <line x1="12" y1="8" x2="12.01" y2="8" />
</svg>
